{
	"additionalNodes": [],
	"additionalParameters": {
		"root": {
			"height": 128,
			"width": 216
		}
	},
	"inputs": [ {
		"command": "Variable",
		"name": "squadId"
	}, {
		"command": "Variable",
		"name": "corridor"
	} ],
	"outputs": [],
	"properties": {
		"7wFSQQryWRz5L82bWuPQVlK9D2RT2h0p": {
			"height": 94,
			"title": "store",
			"width": 376,
			"x": 658,
			"y": -109
		},
		"WA0W3KwprZJWODqZMzrsamwYJ5NR4Ulk": {
			"height": 60,
			"title": "sequence",
			"width": 143,
			"x": 452,
			"y": 17
		},
		"jRAorZoi1ENwmDwW7P79wYtdgDl6uX9G": {
			"height": 60,
			"title": "repeat",
			"width": 131,
			"x": 275,
			"y": 17
		},
		"rZ258lmTnpmzwJ2BbVU01eMbOJNPx0gM": {
			"height": 92,
			"title": "nota_kop_swampdota.RegisterUnitToSquad",
			"width": 341,
			"x": 663,
			"y": 6
		},
		"x5WRcM0BYVLPhyNzhSGs9HOMAKI8lzbD": {
			"height": 112,
			"title": "nota_kop_swampdota.Mine",
			"width": 236,
			"x": 664,
			"y": 117
		}
	},
	"roles": [ {
		"categories": [],
		"name": "Role 0"
	} ],
	"root": {
		"children": [ {
			"children": [ {
				"children": [],
				"id": "7wFSQQryWRz5L82bWuPQVlK9D2RT2h0p",
				"nodeType": "luaCommand",
				"parameters": [ {
					"name": "var",
					"value": "unit"
				}, {
					"name": "value",
					"value": "nota_kop_swampdota.GetFreeUnit(\"armfark\")"
				}, {
					"name": "scriptName",
					"value": "store"
				} ],
				"scriptName": "store"
			}, {
				"children": [],
				"id": "rZ258lmTnpmzwJ2BbVU01eMbOJNPx0gM",
				"nodeType": "luaCommand",
				"parameters": [ {
					"name": "unit",
					"value": "unit"
				}, {
					"name": "squadId",
					"value": "squadId"
				}, {
					"name": "scriptName",
					"value": "nota_kop_swampdota.RegisterUnitToSquad"
				} ],
				"scriptName": "nota_kop_swampdota.RegisterUnitToSquad"
			}, {
				"children": [],
				"id": "x5WRcM0BYVLPhyNzhSGs9HOMAKI8lzbD",
				"nodeType": "luaCommand",
				"parameters": [ {
					"name": "unit",
					"value": "unit"
				}, {
					"name": "squadId",
					"value": "squadId"
				}, {
					"name": "corridor",
					"value": "corridor"
				}, {
					"name": "scriptName",
					"value": "nota_kop_swampdota.Mine"
				} ],
				"scriptName": "nota_kop_swampdota.Mine"
			} ],
			"id": "WA0W3KwprZJWODqZMzrsamwYJ5NR4Ulk",
			"nodeType": "sequence",
			"parameters": []
		} ],
		"id": "jRAorZoi1ENwmDwW7P79wYtdgDl6uX9G",
		"nodeType": "repeat",
		"parameters": []
	}
}